Tidy a survfit object — tidy_survfit • ggsurvfit
…
    Value

a tibble

    Examples

survfit2(Surv(time, status) ~ factor(ph.ecog), data = df_lung) %>%
  tidy_survfit()
#> # A tibble: 220 × 16
#>     time n.risk n.event n.censor cum.e…¹ cum.c…² estim…³ std.e…⁴ conf.…⁵ conf.…⁶
#>    <dbl>  <dbl>   <dbl>    <dbl>   <dbl>   <dbl>   <dbl>   <dbl>   <dbl>   <dbl>
#>  1 0         63       0        0       0       0   1      0        1       1    
#>  2 0.164     63       1        0       1       0   0.984  0.0160   1       0.954
#>  3 0.361     62       1        0       2       0   0.968  0.0228   1       0.926
#>  4 0.493     61       1        0       3       0   0.952  0.0282   1       0.901
#>  5 1.02      60       1        0       4       0   0.937  0.0328   0.999   0.878
#>  6 1.74      59       1        0       5       0   0.921  0.0370   0.990   0.856
#>  7 2.14      58       1        0       6       0   0.905  0.0409   0.980   0.835
#>  8 2.66      57       1        0       7       0   0.889  0.0445   0.970   0.815
#>  9 4.83      56       1        0       8       0   0.873  0.0480   0.959   0.795
#> 10 5.45      55       1        0       9       0   0.857  0.0514   0.948   0.775
#> # … with 210 more rows, 6 more variables: strata <fct>, estimate_type <chr>,
#> #   estimate_type_label <chr>, monotonicity_type <chr>, strata_label <chr>,
#> #   conf.level <dbl>, and abbreviated variable names ¹​cum.event, ²​cum.censor,
#> #   ³​estimate, ⁴​std.error, ⁵​conf.high, ⁶​conf.low
#> # ℹ Use `print(n = ...)` to see more rows, and `colnames()` to see all variable names
…
